{
    "pending":{
        "link" : "/",
        "img" : {
            "url" : "https://cdn.pixabay.com/photo/2015/01/12/03/25/keyboard-597007__340.jpg",
            "style":{
                "width" : "10%",
                "height" : "100px",
                "borderRadius": "20px"
            }
        },
        "location" : "welcome page",
        "paragraph" : "Your registration is pending approval from the administrator"
    },
    "return":{
        "link" : "/login",
        "img" : {
            "url" : "https://cdn.onlinewebfonts.com/svg/img_121521.png",
            "style":{
                "width" : "90px",
                "height" : "70px"
            }
        },
        "location" : "sign in page",
        "paragraph" : "Check your email for a link to reset your password. If it doesn’t appear within a few minutes, check your spam folder."
    }
}