[
    {
        "label" : "Username",
        "icon" : "user",
        "input" : {
            "name" : "identifier",
            "autoFocus" : "{true}",
            "type" : "text" 
        }
    },
    {
        "label" : "Password",
        "icon": "lock",
        "input" : {
            "name" : "password",
            "type" : "password"
        }        
    }
]