[
    {
        "name": "Kostas Koyias", 
        "image": "../rsrc/koyias.jpeg", 
        "sdi": "sdi1500071", 
        "git": "https://github.com/KostasKoyias"
    },
    {
        "name": "Alexios Zamanidis", 
        "image": "../rsrc/alex.png", 
        "sdi": "sdi1600047", 
        "git": "https://github.com/ZamanidisAlexios"
    }
]